<?xml version="1.0" encoding="UTF-8"?>
<ui version="4.0">
 <class>BehaviorTreeDesign</class>
 <widget class="QWidget" name="BehaviorTreeDesign">
  <property name="geometry">
   <rect>
    <x>0</x>
    <y>0</y>
    <width>320</width>
    <height>90</height>
   </rect>
  </property>
  <property name="sizePolicy">
   <sizepolicy hsizetype="Minimum" vsizetype="Minimum">
    <horstretch>0</horstretch>
    <verstretch>0</verstretch>
   </sizepolicy>
  </property>
  <property name="windowTitle">
   <string>Form</string>
  </property>
  <layout class="QGridLayout" name="gridLayout_2">
   <item row="0" column="0">
    <layout class="QGridLayout" name="gridLayout">
     <property name="bottomMargin">
      <number>10</number>
     </property>
     <item row="0" column="0">
      <widget class="QPushButton" name="import_tree_button">
       <property name="sizePolicy">
        <sizepolicy hsizetype="MinimumExpanding" vsizetype="Maximum">
         <horstretch>0</horstretch>
         <verstretch>0</verstretch>
        </sizepolicy>
       </property>
       <property name="minimumSize">
        <size>
         <width>0</width>
         <height>40</height>
        </size>
       </property>
       <property name="text">
        <string>Import File</string>
       </property>
       <property name="icon">
        <iconset resource="../../resources/images.qrc">
         <normaloff>:/images/images/ic_folder_24px.svg</normaloff>:/images/images/ic_folder_24px.svg</iconset>
       </property>
      </widget>
     </item>
     <item row="0" column="1">
      <widget class="QPushButton" name="edit_tree_button">
       <property name="sizePolicy">
        <sizepolicy hsizetype="MinimumExpanding" vsizetype="Maximum">
         <horstretch>0</horstretch>
         <verstretch>0</verstretch>
        </sizepolicy>
       </property>
       <property name="minimumSize">
        <size>
         <width>0</width>
         <height>40</height>
        </size>
       </property>
       <property name="text">
        <string>Edit Mission</string>
       </property>
       <property name="icon">
        <iconset resource="../../resources/images.qrc">
         <normaloff>:/images/images/edit-property.png</normaloff>:/images/images/edit-property.png</iconset>
       </property>
      </widget>
     </item>
    </layout>
   </item>
   <item row="1" column="0">
    <layout class="QGridLayout" name="gridLayout_3"/>
   </item>
  </layout>
 </widget>
 <resources>
  <include location="../../resources/images.qrc"/>
 </resources>
 <connections/>
</ui>
